A Jump-Start into R for Statistical Programmers and Analysts
…
Data Wrangling: Tidyverse with dplyr

# Aggregate by values of a variable
eruptions5 <- group_by(eruptions4, Start_Year)

# Perform operation by specified grouping
eruptions6 <- summarize(eruptions5, count = n(), avg_VEI = mean(VEI, na.rm = TRUE), 
    maxLength = max(Length, na.rm = TRUE))
eruptions6

## # A tibble: 117 x 4
##    Start_Year count avg_VEI maxLength
##         <int> <int>   <dbl>     <dbl>
##  1       1901    16     2.1         0
##  2       1902    34     1.9         3
##  3       1903    20     1.6        10
##  4       1904    31     1.9         2
##  5       1905    25     1.7         6
##  6       1906    31     1.8        18
##  7       1907    43     1.8         3
##  8       1908    24     1.7         6
##  9       1909    28     1.9         5
## 10       1910    31     1.7        21
## # ... with 107 more rows
…
library(dplyr) #Automatically loads magrittr

yearly <- eruptions %>%
    select(Eruption_Category, VEI, Start_Year, End_Year) %>%
    filter(Eruption_Category=="Confirmed Eruption", Start_Year>=1900) %>%
    mutate(Length = End_Year - Start_Year) %>%
    group_by(Start_Year) %>%
    summarize(count=n(), avg_VEI=mean(VEI, na.rm=TRUE), maxLength = max(Length, na.rm=TRUE))

Data Wrangling: Tidyverse with dplyr and magrittr

yearly

## # A tibble: 118 x 4
##    Start_Year count avg_VEI maxLength
##         <int> <int>   <dbl>     <dbl>
##  1       1900    20     1.5         4
##  2       1901    16     2.1         0
##  3       1902    34     1.9         3
##  4       1903    20     1.6        10
##  5       1904    31     1.9         2
##  6       1905    25     1.7         6
##  7       1906    31     1.8        18
##  8       1907    43     1.8         3
##  9       1908    24     1.7         6
## 10       1909    28     1.9         5
## # ... with 108 more rows
…
